{
    "request": {
        "Target": "AffiliateBilling",
        "Format": "json",
        "Service": "HasOffers",
        "Version": "2",
        "NetworkToken": "NETworkToken",
        "Method": "createInvoice",
        "data": {
            "end_date": "2018-07-08",
            "start_date": "2016-01-01",
            "affiliate_id": "1594"
        },
        "allow_duplicate": "0",
        "__lc_visitor_id_1040387": "S1509335797.5434bd3806",
        "intercom-lou-zrjutp6m": "1",
        "lc_ssoundefined": "1526279314504",
        "lc_sso1040387": "1531549913984",
        "_hp2_ses_props_1318563364": "{\"ts\":1531576714164,\"d\":\"company_11.hasoffers.com\",\"h\":\"/admin/snapshot\"}",
        "_hp2_id_1318563364": "{\"userId\":null,\"pageviewId\":\"1636515173510191\",\"sessionId\":\"2402209768015042\",\"identity\":\"29755-12\",\"trackerVersion\":\"4.0\",\"oldIdentity\":\"29755-12\",\"identityField\":null,\"isIdentified\":1}",
        "intercom-session-zrjutp6m": "TjFoNFZ5RHdxU25yNzZSVlVraGZ2TnMxWCtMck56SDJpTFNlbHVLdnljcUdYbG5WbkErblBEcUZmRklzV1BXZC0tWHhwb0ozYUkydDJlL0xKaE8xZkl1dz09--6058e350bc68748f77b6f6218fabaf03c0fb23fe"
    },
    "response": {
        "status": 1,
        "httpStatus": 200,
        "data": {
            "AffiliateInvoice": {
                "id": "10615",
                "affiliate_id": "1594",
                "advertiser_id": null,
                "datetime": "2018-07-14 14:00:12",
                "start_date": "2016-01-01",
                "end_date": "2018-07-08",
                "is_paid": "0",
                "memo": "",
                "status": "active",
                "notes": null,
                "receipt_id": null,
                "amount": 0,
                "conversions": null,
                "currency": "USD",
                "actions": 0
            }
        },
        "errors": [],
        "errorMessage": null
    }
}