{
    "request": {
        "Target": "AffiliateBilling",
        "Format": "json",
        "Service": "HasOffers",
        "Version": "2",
        "NetworkToken": "NETworkToken",
        "Method": "findLastInvoice",
        "affiliate_id": "8966",
        "__lc_visitor_id_1040387": "S1507695128.c23d0bc84a",
        "intercom-lou-zrjutp6m": "1",
        "lc_ssoundefined": "1526358693367",
        "lc_sso1040387": "1531366024549",
        "_hp2_ses_props_1318563364": "{\"r\":\"http://company_11.hasoffers.com/admin/billing/view_invoice/10607\",\"ts\":1531456824812,\"d\":\"company_11.hasoffers.com\",\"h\":\"/admin/billing/view_invoice/10607\"}",
        "_hp2_id_1318563364": "{\"userId\":null,\"pageviewId\":\"5475887199724875\",\"sessionId\":\"8784613075891924\",\"identity\":\"29755-12\",\"trackerVersion\":\"4.0\",\"oldIdentity\":\"29755-12\",\"identityField\":null,\"isIdentified\":1}",
        "intercom-session-zrjutp6m": "dFJVYVN1QWQvL3dHZUExeHFBaGVpb1VLSjVla3JnbTdHcU1KNEk5aWl1NTFCRGVOeTMxUWxGRE1DYWZiREhJMS0td2NQSFNEUWRJY3p1Rm1TdWpsdjY5UT09--859072ae5ec3b35351eacc7f0f85fef499ac971e"
    },
    "response": {
        "status": 1,
        "httpStatus": 200,
        "data": {
            "AffiliateInvoice": {
                "id": "10601",
                "affiliate_id": "8966",
                "advertiser_id": null,
                "datetime": "2018-07-12 04:28:33",
                "start_date": "2018-06-12",
                "end_date": "2018-07-01",
                "is_paid": "0",
                "memo": "",
                "status": "active",
                "notes": "",
                "receipt_id": null,
                "amount": "3150.00",
                "conversions": null,
                "currency": "USD",
                "actions": "126"
            }
        },
        "errors": [],
        "errorMessage": null
    }
}