{
    "request": {
        "Target": "Affiliate",
        "Format": "json",
        "Service": "HasOffers",
        "Version": "2",
        "NetworkToken": "NETworkToken",
        "Method": "findAllIds",
        "filters": {
            "payment_terms": "invoice"
        },
        "__lc_visitor_id_1040387": "S1509335797.5434bd3806",
        "intercom-lou-zrjutp6m": "1",
        "lc_ssoundefined": "1526279314504",
        "lc_sso1040387": "1531549913984",
        "_hp2_ses_props_1318563364": "{\"r\":\"http://NETworkToken.hasoffers.com/admin/affiliates/referral_list\",\"ts\":1531560161203,\"d\":\"NETworkToken.hasoffers.com\",\"h\":\"/admin/affiliates/referral_list\"}",
        "_hp2_id_1318563364": "{\"userId\":null,\"pageviewId\":\"1356307035002691\",\"sessionId\":\"6260602857309823\",\"identity\":\"29755-12\",\"trackerVersion\":\"4.0\",\"oldIdentity\":\"29755-12\",\"identityField\":null,\"isIdentified\":1}",
        "intercom-session-zrjutp6m": "YnV6c0gwSU5oQnRSdWZ1UHZ5Tlp3UVRPbSt6V0V2NEdyWEV6anROMHhJWXUrM1B2S1M1cnprZDFRb1hDZjB0Ui0tQU15OUg0NU9USEVlemJvNDJ4WCs1dz09--e639d0d6121d9ed183accef1c8910f025e2e32e6"
    },
    "response": {
        "status": 1,
        "httpStatus": 200,
        "data": [
            "1594",
            "2096",
            "2328",
            "2470",
            "3398",
            "3700",
            "3772",
            "3866",
            "3914",
            "3922",
            "3936",
            "3946",
            "3948",
            "3968",
            "3970",
            "4000",
            "4198",
            "4404",
            "4516",
            "4643",
            "4691",
            "4695",
            "4845",
            "5067",
            "5449",
            "5917",
            "6131",
            "6189",
            "6253",
            "6289",
            "6317",
            "6333",
            "6363",
            "6377",
            "6423",
            "6447",
            "6485",
            "6531",
            "6537",
            "6725",
            "6981",
            "7041",
            "7071",
            "7156",
            "7250",
            "7276",
            "7290",
            "7406",
            "7490",
            "7528",
            "7534",
            "7560",
            "7574",
            "7576",
            "7852",
            "8078",
            "8080",
            "8082",
            "8122",
            "8132",
            "8188",
            "8190",
            "8222",
            "8268",
            "8332",
            "8830",
            "8966"
        ],
        "errors": [],
        "errorMessage": null
    }
}