{
    "request": {
        "Target": "AffiliateBilling",
        "Format": "json",
        "Service": "HasOffers",
        "Version": "2",
        "NetworkToken": "NETworkToken",
        "Method": "findInvoiceStats",
        "affiliate_id": "1594",
        "end_": "2018-07-08",
        "currency": "USD",
        "__lc_visitor_id_1040387": "S15335797.5434bd3806",
        "intercom-lou-zrjutp6m": "1",
        "lc_ssoundefined": "1526279314504",
        "lc_sso1040387": "1531549913984",
        "_hp2_ses_props_1318563364": "{\"ts\":1531576714164,\"d\":\"company_11.hasoffers.com\",\"h\":\"/admin/snapshot\"}",
        "_hp2_id_1318563364": "{\"userId\":null,\"pageviewId\":\"5784722208161296\",\"sessionId\":\"2402209768015042\",\"identity\":\"29755-12\",\"trackerVersion\":\"4.0\",\"oldIdentity\":\"29755-12\",\"identityField\":null,\"isIdentified\":1}",
        "intercom-session-zrjutp6m": "clNdoNkRvaEtlmOGoycFNVWGZySklmNlE0VC0tMitNOGtEYUtob0RKYWFJZHN0ZnhBdz09--5bf30c7564a50e3ab705f2a5bdff46224d2f3c2f"
    },
    "response": {
        "status": 1,
        "httpStatus": 200,
        "data": {
            "start_": "2016-06-10",
            "end_": "2018-07-08",
            "data": [
                {
                    "Stat": {
                        "type": "stats",
                        "offer_id": "308",
                        "offer_name": "test",
                        "payout_type": "cpa_flat",
                        "impressions": "0",
                        "clicks": "3",
                        "conversions": "1",
                        "goal_id": "0",
                        "goal_name": "",
                        "currency": "USD",
                        "amount": "2.25000",
                        "revenue": "3.00000",
                        "sale_amount": "3.00000",
                        "converted_amount": "2.250000",
                        "converted_revenue": "3.000000",
                        "converted_sale_amount": "3.000000"
                    }
                },
                {
                    "Stat": {
                        "type": "stats",
                        "offer_id": "560",
                        "offer_name": "Sign Up",
                        "payout_type": "cpa_percentage",
                        "impressions": "0",
                        "clicks": "7746",
                        "conversions": "79",
                        "goal_id": "0",
                        "goal_name": "",
                        "currency": "USD",
                        "amount": "651.50000",
                        "revenue": "651.50000",
                        "sale_amount": "651.50000",
                        "converted_amount": "651.500000",
                        "converted_revenue": "651.500000",
                        "converted_sale_amount": "651.500000"
                    }
                },
                {
                    "Stat": {
                        "type": "stats",
                        "offer_id": "173",
                        "offer_name": "Test_44",
                        "payout_type": "cpa_flat",
                        "impressions": "0",
                        "clicks": "10",
                        "conversions": "1",
                        "goal_id": "0",
                        "goal_name": "",
                        "currency": "USD",
                        "amount": "3.00000",
                        "revenue": "80.00000",
                        "sale_amount": "80.00000",
                        "converted_amount": "3.000000",
                        "converted_revenue": "80.000000",
                        "converted_sale_amount": "80.000000"
                    }
                },
                {
                    "Stat": {
                        "type": "stats",
                        "offer_id": "608",
                        "offer_name": "SP - API offer test",
                        "payout_type": "cpa_percentage",
                        "impressions": "0",
                        "clicks": "5",
                        "conversions": "1",
                        "goal_id": "0",
                        "goal_name": "",
                        "currency": "USD",
                        "amount": "1.00000",
                        "revenue": "1.00000",
                        "sale_amount": "1.00000",
                        "converted_amount": "1.000000",
                        "converted_revenue": "1.000000",
                        "converted_sale_amount": "1.000000"
                    }
                },
                {
                    "Stat": {
                        "type": "stats",
                        "offer_id": "203",
                        "offer_name": "Well",
                        "payout_type": "cpa_flat",
                        "impressions": "0",
                        "clicks": "8",
                        "conversions": "3",
                        "goal_id": "0",
                        "goal_name": "",
                        "currency": "USD",
                        "amount": "12.50000",
                        "revenue": "15.40000",
                        "sale_amount": "15.40000",
                        "converted_amount": "12.500000",
                        "converted_revenue": "15.400000",
                        "converted_sale_amount": "15.400000"
                    }
                },
                {
                    "Stat": {
                        "type": "stats",
                        "offer_id": "306",
                        "offer_name": "BBfor",
                        "payout_type": "cpa_flat",
                        "impressions": "0",
                        "clicks": "4",
                        "conversions": "1",
                        "goal_id": "0",
                        "goal_name": "",
                        "currency": "USD",
                        "amount": "2.25000",
                        "revenue": "0.01000",
                        "sale_amount": "0.01000",
                        "converted_amount": "2.250000",
                        "converted_revenue": "0.010000",
                        "converted_sale_amount": "0.010000"
                    }
                },
                {
                    "Stat": {
                        "type": "stats",
                        "offer_id": "618",
                        "offer_name": "test_34",
                        "payout_type": "cpa_flat",
                        "impressions": "0",
                        "clicks": "7",
                        "conversions": "1",
                        "goal_id": "0",
                        "goal_name": "",
                        "currency": "USD",
                        "amount": "2.25000",
                        "revenue": "3.00000",
                        "sale_amount": "3.00000",
                        "converted_amount": "2.250000",
                        "converted_revenue": "3.000000",
                        "converted_sale_amount": "3.000000"
                    }
                },
                {
                    "Stat": {
                        "type": "stats",
                        "offer_id": "207",
                        "offer_name": "Media test",
                        "payout_type": "cpa_flat",
                        "impressions": "0",
                        "clicks": "8",
                        "conversions": "1",
                        "goal_id": "0",
                        "goal_name": "",
                        "currency": "USD",
                        "amount": "2.25000",
                        "revenue": "45.00000",
                        "sale_amount": "45.00000",
                        "converted_amount": "2.250000",
                        "converted_revenue": "45.000000",
                        "converted_sale_amount": "45.000000"
                    }
                },
                {
                    "Stat": {
                        "type": "stats",
                        "offer_id": "92",
                        "offer_name": " Pre-gghf",
                        "payout_type": "cpa_percentage",
                        "impressions": "0",
                        "clicks": "5",
                        "conversions": "1",
                        "goal_id": "0",
                        "goal_name": "",
                        "currency": "USD",
                        "amount": "2.00000",
                        "revenue": "0.00000",
                        "sale_amount": "0.00000",
                        "converted_amount": "2.000000",
                        "converted_revenue": "0.000000",
                        "converted_sale_amount": "0.000000"
                    }
                },
                {
                    "Stat": {
                        "type": "stats",
                        "offer_id": "434",
                        "offer_name": " PPL Non",
                        "payout_type": "cpa_percentage",
                        "impressions": "0",
                        "clicks": "1243",
                        "conversions": "44",
                        "goal_id": "0",
                        "goal_name": "",
                        "currency": "USD",
                        "amount": "145.77500",
                        "revenue": "171.50000",
                        "sale_amount": "171.50000",
                        "converted_amount": "145.775000",
                        "converted_revenue": "171.500000",
                        "converted_sale_amount": "171.500000"
                    }
                },
                {
                    "Stat": {
                        "type": "stats",
                        "offer_id": "169",
                        "offer_name": " PPS ",
                        "payout_type": "cpa_flat",
                        "impressions": "0",
                        "clicks": "14",
                        "conversions": "1",
                        "goal_id": "0",
                        "goal_name": "",
                        "currency": "USD",
                        "amount": "15.00000",
                        "revenue": "0.00000",
                        "sale_amount": "0.00000",
                        "converted_amount": "15.000000",
                        "converted_revenue": "0.000000",
                        "converted_sale_amount": "0.000000"
                    }
                },
                {
                    "Stat": {
                        "type": "stats",
                        "offer_id": "338",
                        "offer_name": "Profits - test",
                        "payout_type": "cpa_flat",
                        "impressions": "0",
                        "clicks": "5",
                        "conversions": "1",
                        "goal_id": "0",
                        "goal_name": "",
                        "currency": "USD",
                        "amount": "2.25000",
                        "revenue": "2.50000",
                        "sale_amount": "2.50000",
                        "converted_amount": "2.250000",
                        "converted_revenue": "2.500000",
                        "converted_sale_amount": "2.500000"
                    }
                },
                {
                    "Stat": {
                        "type": "stats",
                        "offer_id": "608",
                        "offer_name": "API offer test",
                        "payout_type": "cpa_flat",
                        "impressions": "0",
                        "clicks": "23",
                        "conversions": "4",
                        "goal_id": "0",
                        "goal_name": "",
                        "currency": "USD",
                        "amount": "9.00000",
                        "revenue": "0.80000",
                        "sale_amount": "0.80000",
                        "converted_amount": "9.000000",
                        "converted_revenue": "0.800000",
                        "converted_sale_amount": "0.800000"
                    }
                },
                {
                    "Stat": {
                        "type": "stats",
                        "offer_id": "88",
                        "offer_name": " Dynamic Pre Lander ",
                        "payout_type": "cpa_flat",
                        "impressions": "0",
                        "clicks": "10",
                        "conversions": "1",
                        "goal_id": "0",
                        "goal_name": "",
                        "currency": "USD",
                        "amount": "55.00000",
                        "revenue": "0.01000",
                        "sale_amount": "0.00000",
                        "converted_amount": "55.000000",
                        "converted_revenue": "0.010000",
                        "converted_sale_amount": "0.000000"
                    }
                },
                {
                    "Stat": {
                        "type": "stats",
                        "offer_id": "243",
                        "offer_name": "ffgg_test",
                        "payout_type": "cpa_percentage",
                        "impressions": "0",
                        "clicks": "8",
                        "conversions": "1",
                        "goal_id": "0",
                        "goal_name": "",
                        "currency": "USD",
                        "amount": "5.95000",
                        "revenue": "7.00000",
                        "sale_amount": "7.00000",
                        "converted_amount": "5.950000",
                        "converted_revenue": "7.000000",
                        "converted_sale_amount": "7.000000"
                    }
                },
                {
                    "Stat": {
                        "type": "stats",
                        "offer_id": "486",
                        "offer_name": "kCleo",
                        "payout_type": "cpa_percentage",
                        "impressions": "0",
                        "clicks": "9775",
                        "conversions": "2",
                        "goal_id": "0",
                        "goal_name": "",
                        "currency": "USD",
                        "amount": "100.00000",
                        "revenue": "100.00000",
                        "sale_amount": "100.00000",
                        "converted_amount": "100.000000",
                        "converted_revenue": "100.000000",
                        "converted_sale_amount": "100.000000"
                    }
                },
                {
                    "Stat": {
                        "type": "stats",
                        "offer_id": "147",
                        "offer_name": "AC test",
                        "payout_type": "cpa_flat",
                        "impressions": "0",
                        "clicks": "3",
                        "conversions": "-1",
                        "goal_id": "0",
                        "goal_name": "",
                        "currency": "USD",
                        "amount": "-0.30000",
                        "revenue": "-0.35000",
                        "sale_amount": "0.00000",
                        "converted_amount": "-0.300000",
                        "converted_revenue": "-0.350000",
                        "converted_sale_amount": "0.000000"
                    }
                },
                {
                    "Stat": {
                        "type": "stats",
                        "offer_id": "316",
                        "offer_name": "Top - test",
                        "payout_type": "cpa_flat",
                        "impressions": "0",
                        "clicks": "2",
                        "conversions": "1",
                        "goal_id": "0",
                        "goal_name": "",
                        "currency": "USD",
                        "amount": "2.25000",
                        "revenue": "2.20000",
                        "sale_amount": "2.20000",
                        "converted_amount": "2.250000",
                        "converted_revenue": "2.200000",
                        "converted_sale_amount": "2.200000"
                    }
                },
                {
                    "Stat": {
                        "type": "stats",
                        "offer_id": "588",
                        "offer_name": "Tour1",
                        "payout_type": "cpa_flat",
                        "impressions": "0",
                        "clicks": "4",
                        "conversions": "1",
                        "goal_id": "0",
                        "goal_name": "",
                        "currency": "USD",
                        "amount": "2.25000",
                        "revenue": "0.00000",
                        "sale_amount": "0.00000",
                        "converted_amount": "2.250000",
                        "converted_revenue": "0.000000",
                        "converted_sale_amount": "0.000000"
                    }
                },
                {
                    "Stat": {
                        "type": "stats",
                        "offer_id": "80",
                        "offer_name": " Dynamic Pre Lander",
                        "payout_type": "cpa_flat",
                        "impressions": "0",
                        "clicks": "82",
                        "conversions": "1",
                        "goal_id": "0",
                        "goal_name": "",
                        "currency": "USD",
                        "amount": "2.50000",
                        "revenue": "3.50000",
                        "sale_amount": "0.00000",
                        "converted_amount": "2.500000",
                        "converted_revenue": "3.500000",
                        "converted_sale_amount": "0.000000"
                    }
                },
                {
                    "Stat": {
                        "type": "stats",
                        "offer_id": "189",
                        "offer_name": "Free3D",
                        "payout_type": "cpa_flat",
                        "impressions": "0",
                        "clicks": "14",
                        "conversions": "1",
                        "goal_id": "0",
                        "goal_name": "",
                        "currency": "USD",
                        "amount": "21.00000",
                        "revenue": "30.00000",
                        "sale_amount": "30.00000",
                        "converted_amount": "21.000000",
                        "converted_revenue": "30.000000",
                        "converted_sale_amount": "30.000000"
                    }
                },
                {
                    "Stat": {
                        "type": "stats",
                        "offer_id": "434",
                        "offer_name": " PPL Dynamic Pre Lander",
                        "payout_type": "cpa_flat",
                        "impressions": "0",
                        "clicks": "419",
                        "conversions": "28",
                        "goal_id": "0",
                        "goal_name": "",
                        "currency": "USD",
                        "amount": "95.20000",
                        "revenue": "106.00000",
                        "sale_amount": "106.00000",
                        "converted_amount": "95.200000",
                        "converted_revenue": "106.000000",
                        "converted_sale_amount": "106.000000"
                    }
                },
                {
                    "Stat": {
                        "type": "stats",
                        "offer_id": "576",
                        "offer_name": "Internal",
                        "payout_type": "cpa_percentage",
                        "impressions": "0",
                        "clicks": "37626",
                        "conversions": "1243",
                        "goal_id": "0",
                        "goal_name": "",
                        "currency": "USD",
                        "amount": "8195.40000",
                        "revenue": "8195.40000",
                        "sale_amount": "8195.40000",
                        "converted_amount": "8195.400000",
                        "converted_revenue": "8195.400000",
                        "converted_sale_amount": "8195.400000"
                    }
                },
                {
                    "Stat": {
                        "type": "stats",
                        "offer_id": "78",
                        "offer_name": "Private",
                        "payout_type": "cpa_flat",
                        "impressions": "0",
                        "clicks": "64",
                        "conversions": "1",
                        "goal_id": "0",
                        "goal_name": "",
                        "currency": "USD",
                        "amount": "2.50000",
                        "revenue": "3.50000",
                        "sale_amount": "0.00000",
                        "converted_amount": "2.500000",
                        "converted_revenue": "3.500000",
                        "converted_sale_amount": "0.000000"
                    }
                },
                {
                    "Stat": {
                        "type": "stats",
                        "offer_id": "183",
                        "offer_name": "Test - PPL",
                        "payout_type": "cpa_flat",
                        "impressions": "0",
                        "clicks": "5",
                        "conversions": "1",
                        "goal_id": "0",
                        "goal_name": "",
                        "currency": "USD",
                        "amount": "3.00000",
                        "revenue": "80.00000",
                        "sale_amount": "80.00000",
                        "converted_amount": "3.000000",
                        "converted_revenue": "80.000000",
                        "converted_sale_amount": "80.000000"
                    }
                },
                {
                    "Stat": {
                        "type": "stats",
                        "offer_id": "406",
                        "offer_name": "Sports NFL",
                        "payout_type": "cpa_flat",
                        "impressions": "0",
                        "clicks": "2513",
                        "conversions": "2",
                        "goal_id": "0",
                        "goal_name": "",
                        "currency": "USD",
                        "amount": "170.00000",
                        "revenue": "200.00000",
                        "sale_amount": "200.00000",
                        "converted_amount": "170.000000",
                        "converted_revenue": "200.000000",
                        "converted_sale_amount": "200.000000"
                    }
                },
                {
                    "Stat": {
                        "type": "stats",
                        "offer_id": "658",
                        "offer_name": "658 PT & PPL",
                        "payout_type": "cpa_percentage",
                        "impressions": "0",
                        "clicks": "71",
                        "conversions": "2",
                        "goal_id": "0",
                        "goal_name": "",
                        "currency": "USD",
                        "amount": "8.00000",
                        "revenue": "8.00000",
                        "sale_amount": "8.00000",
                        "converted_amount": "8.000000",
                        "converted_revenue": "8.000000",
                        "converted_sale_amount": "8.000000"
                    }
                },
                {
                    "Stat": {
                        "type": "stats",
                        "offer_id": "430",
                        "offer_name": "AI test 3",
                        "payout_type": "cpa_percentage",
                        "impressions": "0",
                        "clicks": "742",
                        "conversions": "19",
                        "goal_id": "0",
                        "goal_name": "",
                        "currency": "USD",
                        "amount": "76.00000",
                        "revenue": "76.00000",
                        "sale_amount": "76.00000",
                        "converted_amount": "76.000000",
                        "converted_revenue": "76.000000",
                        "converted_sale_amount": "76.000000"
                    }
                }
            ],
            "currencies": [
                "USD"
            ]
        },
        "errors": [],
        "errorMessage": null
    }
}